Project 1: Wrangling, Exploration, Visualization
…
merged_data <- weather %>% full_join(netflix) %>% na.omit()
merged_data

## # A tibble: 387 x 9
##    date    temp_max temp_min temp_avg precipitation snow_depth title type  genre
##    <chr>      <dbl>    <dbl>    <dbl>         <dbl>      <dbl> <chr> <chr> <chr>
##  1 2/7/21        70       40     55               0          0 The  movie drama
##  2 2/12/21       33       29     31               0          0 Fire tv    come
##  3 2/13/21       31       26     28.5             0          0 Hush  movie horr
##  4 2/22/21       76       42     59               0          0 Marr movie drama
##  5 2/23/21       79       47     63               0          0 Good tv    come
##  6 2/23/21       79       47     63               0          0 Good tv    come
##  7 2/23/21       79       47     63               0          0 Good tv    come
##  8 2/23/21       79       47     63               0          0 Good tv    come
##  9 2/24/21       86       64     75               0          0 Good tv    come
## 10 2/24/21       86       64     75               0          0 Good tv    come
## #  with 377 more rows
…
## # A tibble: 1 x 2
##   `"type"`     n
##   <chr>    <int>
## 1 type       387

I used full_join to merge join my data using date as my common variable for both data sets. The joined data set had 448 rows and 9 columns. However, after using na.omit to remove any NA variables, the final joined data set had 387 rows and 9 columns, as expected. The removal of these NA variables can be attributed to the fact that netflix was not watched every single day. The large amount of rows can be attributed to the title variable since multiple shows were watched on given dates. I used count to generate frequency charts for two categorical variables.

Wrangling

library(dplyr)
# filter and arrange
merged_data %>% group_by(date) %>% filter(temp_avg >= 70) %>% 
    dplyr::summarize(n = n()) %>% arrange(desc(n))

## # A tibble: 57 x 2
##    date        n
##    <chr>   <int>
##  1 5/24/21    22
##  2 5/23/21    14
##  3 5/18/21    12
##  4 5/16/21    11
##  5 5/17/21    11
##  6 5/7/21     10
##  7 6/29/21    10
##  8 5/9/21      9
##  9 4/30/21     8
## 10 5/30/21     8
## #  with 47 more rows

merged_data %>% group_by(date) %>% filter(temp_avg <= 70) %>% 
    dplyr::summarize(n = n()) %>% arrange(desc(n))

## # A tibble: 34 x 2
##    date        n
##    <chr>   <int>
##  1 3/22/21     9
##  2 5/12/21     8
##  3 5/11/21     7
##  4 3/23/21     6
##  5 5/19/21     6
##  6 3/15/21     5
##  7 3/6/21      5
##  8 4/11/21     5
##  9 4/22/21     5
## 10 5/13/21     5
## #  with 24 more rows
…
## # A tibble: 3 x 2
##   genre       temp_avg
##   <chr>          <dbl>
## 1 documentary       88
## 2 reality tv        88
## 3 reality tv        88

# mutated
merged_data %>% mutate(merged_data, warmth = ifelse(temp_avg > 
    70, "warm", "cool"))

## # A tibble: 387 x 10
##    date    temp_max temp_min temp_avg precipitation snow_depth title type  genre
##    <chr>      <dbl>    <dbl>    <dbl>         <dbl>      <dbl> <chr> <chr> <chr>
##  1 2/7/21        70       40     55               0          0 The  movie drama
##  2 2/12/21       33       29     31               0          0 Fire tv    come
##  3 2/13/21       31       26     28.5             0          0 Hush  movie horr
##  4 2/22/21       76       42     59               0          0 Marr movie drama
##  5 2/23/21       79       47     63               0          0 Good tv    come
##  6 2/23/21       79       47     63               0          0 Good tv    come
##  7 2/23/21       79       47     63               0          0 Good tv    come
##  8 2/23/21       79       47     63               0          0 Good tv    come
##  9 2/24/21       86       64     75               0          0 Good tv    come
## 10 2/24/21       86       64     75               0          0 Good tv    come
## #  with 377 more rows, and 1 more variable: warmth <chr>

merged_data %>% mutate(merged_data, rain = ifelse(precipitation > 
    0, "rain", "no rain"))

## # A tibble: 387 x 10
##    date    temp_max temp_min temp_avg precipitation snow_depth title type  genre
##    <chr>      <dbl>    <dbl>    <dbl>         <dbl>      <dbl> <chr> <chr> <chr>
##  1 2/7/21        70       40     55               0          0 The  movie drama
##  2 2/12/21       33       29     31               0          0 Fire tv    come
##  3 2/13/21       31       26     28.5             0          0 Hush  movie horr
##  4 2/22/21       76       42     59               0          0 Marr movie drama
##  5 2/23/21       79       47     63               0          0 Good tv    come
##  6 2/23/21       79       47     63               0          0 Good tv    come
##  7 2/23/21       79       47     63               0          0 Good tv    come
##  8 2/23/21       79       47     63               0          0 Good tv    come
##  9 2/24/21       86       64     75               0          0 Good tv    come
## 10 2/24/21       86       64     75               0          0 Good tv    come
## #  with 377 more rows, and 1 more variable: rain <chr>
…
